src_img/lab4/in_rc_load/MTH.CSV

Record Length,2.500000e+03,,  -0.025000000000,   4.00000,
Sample Interval,2.000000e-05,,  -0.024980000000,   4.00000,
Trigger Point,1.250000000000e+03,,  -0.024960000000,   0.00000,
,,,  -0.024940000000,   8.00000,
,,,  -0.024920000000,   4.00000,
,,,  -0.024900000000,   4.00000,
Source,MATH,,  -0.024880000000,   4.00000,
Vertical Units,VA,,  -0.024860000000,   4.00000,
Vertical Scale,1.000000e+02,,  -0.024840000000,   4.00000,
Vertical Offset,-2.240000e+02,,  -0.024820000000,   4.00000,
Horizontal Units,s,,  -0.024800000000,   4.00000,
Horizontal Scale,5.000000e-03,,  -0.024780000000,   4.00000,
Pt Fmt,Y,,  -0.024760000000,   4.00000,
Yzero,0.000000e+00,,  -0.024740000000,   4.00000,
Probe Atten,1.000000e+00,,  -0.024720000000,   4.00000,
Model Number,TBS1102B,,  -0.024700000000,   4.00000,
Serial Number,C015716,,  -0.024680000000,   4.00000,
Firmware Version,FV:v4.06,,  -0.024660000000,   4.00000,
,,,-00.024640000000,   4.00000,
,,,-00.024620000000,   4.00000,
,,,-00.024600000000,   4.00000,
,,,-00.024580000000,   4.00000,
,,,-00.024560000000,   8.00000,
,,,-00.024540000000,   8.00000,
,,,-00.024520000000,   0.00000,
,,,-00.024500000000,   8.00000,
,,,-00.024480000000,   0.00000,
,,,-00.024460000000,   0.00000,
,,,-00.024440000000,   0.00000,
,,,-00.024420000000,   0.00000,
,,,-00.024400000000,   8.00000,
,,,-00.024380000000,   8.00000,
,,,-00.024360000000,   8.00000,
,,,-00.024340000000,   8.00000,
,,,-00.024320000000,   8.00000,
,,,-00.024300000000,   8.00000,
,,,-00.024280000000,   8.00000,
,,,-00.024260000000,   8.00000,
,,,-00.024240000000,   8.00000,
,,,-00.024220000000,   8.00000,
,,,-00.024200000000,   8.00000,
,,,-00.024180000000,   8.00000,
,,,-00.024160000000,   8.00000,
,,,-00.024140000000,   8.00000,
,,,-00.024120000000,   8.00000,
,,,-00.024100000000,   8.00000,
,,,-00.024080000000,   8.00000,
,,,-00.024060000000,   8.00000,
,,,-00.024040000000,   8.00000,
,,,-00.024020000000,   8.00000,
,,,-00.024000000000,   8.00000,
,,,-00.023980000000,   8.00000,
,,,-00.023960000000,   8.00000,
,,,-00.023940000000,   8.00000,
,,,-00.023920000000,   8.00000,
,,,-00.023900000000,   8.00000,
,,,-00.023880000000,   8.00000,
,,,-00.023860000000,   8.00000,
,,,-00.023840000000,  16.00000,
,,,-00.023820000000,  16.00000,
,,,-00.023800000000,  28.00000,
,,,-00.023780000000,  36.00000,
,,,-00.023760000000,  44.00000,
,,,-00.023740000000,  52.00000,
,,,-00.023720000000,  64.00000,
,,,-00.023700000000,  84.00000,
,,,-00.023680000000,  92.00000,
,,,-00.023660000000, 108.00000,
,,,-00.023640000000, 120.00000,
,,,-00.023620000000, 140.00000,
,,,-00.023600000000, 148.00000,
,,,-00.023580000000, 168.00000,
,,,-00.023560000000, 180.00000,
,,,-00.023540000000, 200.00000,
,,,-00.023520000000, 216.00000,
,,,-00.023500000000, 228.00000,
,,,-00.023480000000, 244.00000,
,,,-00.023460000000, 260.00000,
,,,-00.023440000000, 280.00000,
,,,-00.023420000000, 304.00000,
,,,-00.023400000000, 312.00000,
,,,-00.023380000000, 324.00000,
,,,-00.023360000000, 336.00000,
,,,-00.023340000000, 356.00000,
,,,-00.023320000000, 364.00000,
,,,-00.023300000000, 372.00000,
,,,-00.023280000000, 388.00000,
,,,-00.023260000000, 400.00000,
,,,-00.023240000000, 400.00000,
,,,-00.023220000000, 408.00000,
,,,-00.023200000000, 428.00000,
,,,-00.023180000000, 428.00000,
,,,-00.023160000000, 436.00000,
,,,-00.023140000000, 444.00000,
,,,-00.023120000000, 456.00000,
,,,-00.023100000000, 456.00000,
,,,-00.023080000000, 472.00000,
,,,-00.023060000000, 472.00000,
,,,-00.023040000000, 480.00000,
,,,-00.023020000000, 488.00000,
,,,-00.023000000000, 488.00000,
,,,-00.022980000000, 496.00000,
,,,-00.022960000000, 496.00000,
,,,-00.022940000000, 508.00000,
,,,-00.022920000000, 508.00000,
,,,-00.022900000000, 516.00000,
,,,-00.022880000000, 516.00000,
,,,-00.022860000000, 516.00000,
,,,-00.022840000000, 524.00000,
,,,-00.022820000000, 524.00000,
,,,-00.022800000000, 532.00000,
,,,-00.022780000000, 532.00000,
,,,-00.022760000000, 540.00000,
,,,-00.022740000000, 528.00000,
,,,-00.022720000000, 528.00000,
,,,-00.022700000000, 528.00000,
,,,-00.022680000000, 520.00000,
,,,-00.022660000000, 512.00000,
,,,-00.022640000000, 512.00000,
,,,-00.022620000000, 504.00000,
,,,-00.022600000000, 492.00000,
,,,-00.022580000000, 484.00000,
,,,-00.022560000000, 472.00000,
,,,-00.022540000000, 460.00000,
,,,-00.022520000000, 440.00000,
,,,-00.022500000000, 432.00000,
,,,-00.022480000000, 408.00000,
,,,-00.022460000000, 396.00000,
,,,-00.022440000000, 376.00000,
,,,-00.022420000000, 352.00000,
,,,-00.022400000000, 328.00000,
,,,-00.022380000000, 304.00000,
,,,-00.022360000000, 272.00000,
,,,-00.022340000000, 236.00000,
,,,-00.022320000000, 196.00000,
,,,-00.022300000000, 176.00000,
,,,-00.022280000000, 136.00000,
,,,-00.022260000000, 112.00000,
,,,-00.022240000000,  76.00000,
,,,-00.022220000000,  36.00000,
,,,-00.022200000000, -12.00000,
,,,-00.022180000000,  24.00000,
,,,-00.022160000000,  12.00000,
,,,-00.022140000000,  12.00000,
,,,-00.022120000000,  12.00000,
,,,-00.022100000000,  12.00000,
,,,-00.022080000000,  12.00000,
,,,-00.022060000000,  12.00000,
,,,-00.022040000000,  12.00000,
,,,-00.022020000000,  12.00000,
,,,-00.022000000000,  24.00000,
,,,-00.021980000000,  12.00000,
,,,-00.021960000000,  12.00000,
,,,-00.021940000000,  12.00000,
,,,-00.021920000000,  12.00000,
,,,-00.021900000000,  12.00000,
,,,-00.021880000000,  12.00000,
,,,-00.021860000000,   0.00000,
,,,-00.021840000000,  12.00000,
,,,-00.021820000000,  12.00000,
,,,-00.021800000000,  12.00000,
,,,-00.021780000000,  12.00000,
,,,-00.021760000000,  12.00000,
,,,-00.021740000000,   0.00000,
,,,-00.021720000000,  12.00000,
,,,-00.021700000000,  12.00000,
,,,-00.021680000000,  12.00000,
,,,-00.021660000000,  12.00000,
,,,-00.021640000000,  12.00000,
,,,-00.021620000000,  12.00000,
,,,-00.021600000000,  12.00000,
,,,-00.021580000000,  12.00000,
,,,-00.021560000000,  12.00000,
,,,-00.021540000000,  12.00000,
,,,-00.021520000000,  12.00000,
,,,-00.021500000000,  12.00000,
,,,-00.021480000000,  12.00000,
,,,-00.021460000000,  12.00000,
,,,-00.021440000000,  12.00000,
,,,-00.021420000000,  12.00000,
,,,-00.021400000000,  12.00000,
,,,-00.021380000000,  12.00000,
,,,-00.021360000000,  12.00000,
,,,-00.021340000000,  12.00000,
,,,-00.021320000000,  12.00000,
,,,-00.021300000000,  12.00000,
,,,-00.021280000000,  12.00000,
,,,-00.021260000000,  12.00000,
,,,-00.021240000000,  12.00000,
,,,-00.021220000000,  12.00000,
,,,-00.021200000000,  12.00000,
,,,-00.021180000000,  12.00000,
,,,-00.021160000000,  12.00000,
,,,-00.021140000000,  12.00000,
,,,-00.021120000000,  12.00000,
,,,-00.021100000000,  24.00000,
,,,-00.021080000000,  36.00000,
,,,-00.021060000000,  48.00000,
,,,-00.021040000000,  48.00000,
,,,-00.021020000000,  72.00000,
,,,-00.021000000000,  84.00000,
,,,-00.020980000000,  96.00000,
,,,-00.020960000000, 120.00000,
,,,-00.020940000000, 132.00000,
,,,-00.020920000000, 152.00000,
,,,-00.020900000000, 176.00000,
,,,-00.020880000000, 188.00000,
,,,-00.020860000000, 212.00000,
,,,-00.020840000000, 232.00000,
,,,-00.020820000000, 264.00000,
,,,-00.020800000000, 288.00000,
,,,-00.020780000000, 300.00000,
,,,-00.020760000000, 324.00000,
,,,-00.020740000000, 344.00000,
,,,-00.020720000000, 368.00000,
,,,-00.020700000000, 392.00000,
,,,-00.020680000000, 396.00000,
,,,-00.020660000000, 420.00000,
,,,-00.020640000000, 444.00000,
,,,-00.020620000000, 456.00000,
,,,-00.020600000000, 460.00000,
,,,-00.020580000000, 472.00000,
,,,-00.020560000000, 480.00000,
,,,-00.020540000000, 492.00000,
,,,-00.020520000000, 484.00000,
,,,-00.020500000000, 508.00000,
,,,-00.020480000000, 508.00000,
,,,-00.020460000000, 512.00000,
,,,-00.020440000000, 524.00000,
,,,-00.020420000000, 524.00000,
,,,-00.020400000000, 524.00000,
,,,-00.020380000000, 536.00000,
,,,-00.020360000000, 536.00000,
,,,-00.020340000000, 548.00000,
,,,-00.020320000000, 540.00000,
,,,-00.020300000000, 540.00000,
,,,-00.020280000000, 548.00000,
,,,-00.020260000000, 540.00000,
,,,-00.020240000000, 552.00000,
,,,-00.020220000000, 544.00000,
,,,-00.020200000000, 544.00000,
,,,-00.020180000000, 552.00000,
,,,-00.020160000000, 552.00000,
,,,-00.020140000000, 552.00000,
,,,-00.020120000000, 564.00000,
,,,-00.020100000000, 564.00000,
,,,-00.020080000000, 556.00000,
,,,-00.020060000000, 564.00000,
,,,-00.020040000000, 564.00000,
,,,-00.020020000000, 564.00000,
,,,-00.020000000000, 556.00000,
,,,-00.019980000000, 556.00000,
,,,-00.019960000000, 556.00000,
,,,-00.019940000000, 536.00000,
,,,-00.019920000000, 536.00000,
,,,-00.019900000000, 536.00000,
,,,-00.019880000000, 528.00000,
,,,-00.019860000000, 516.00000,
,,,-00.019840000000, 508.00000,
,,,-00.019820000000, 500.00000,
,,,-00.019800000000, 488.00000,
,,,-00.019780000000, 480.00000,
,,,-00.019760000000, 464.00000,
,,,-00.019740000000, 452.00000,
,,,-00.019720000000, 444.00000,
,,,-00.019700000000, 436.00000,
,,,-00.019680000000, 408.00000,
,,,-00.019660000000, 388.00000,
,,,-00.019640000000, 380.00000,
,,,-00.019620000000, 360.00000,
,,,-00.019600000000, 344.00000,
,,,-00.019580000000, 324.00000,
,,,-00.019560000000, 300.00000,
,,,-00.019540000000, 276.00000,
,,,-00.019520000000, 260.00000,
,,,-00.019500000000, 236.00000,
,,,-00.019480000000, 224.00000,
,,,-00.019460000000, 196.00000,
,,,-00.019440000000, 176.00000,
,,,-00.019420000000, 156.00000,
,,,-00.019400000000, 128.00000,
,,,-00.019380000000, 104.00000,
,,,-00.019360000000,  76.00000,
,,,-00.019340000000,  52.00000,
,,,-00.019320000000,  24.00000,
,,,-00.019300000000,  -8.00000,
,,,-00.019280000000,   8.00000,
,,,-00.019260000000,   8.00000,
,,,-00.019240000000,   8.00000,
,,,-00.019220000000,   8.00000,
,,,-00.019200000000,   8.00000,
,,,-00.019180000000,   8.00000,
,,,-00.019160000000,   8.00000,
,,,-00.019140000000,   8.00000,
,,,-00.019120000000,   8.00000,
,,,-00.019100000000,   8.00000,
,,,-00.019080000000,   8.00000,
,,,-00.019060000000,   8.00000,
,,,-00.019040000000,   8.00000,
,,,-00.019020000000,   8.00000,
,,,-00.019000000000,   8.00000,
,,,-00.018980000000,   8.00000,
,,,-00.018960000000,   8.00000,
,,,-00.018940000000,   4.00000,
,,,-00.018920000000,   4.00000,
,,,-00.018900000000,   4.00000,
,,,-00.018880000000,   4.00000,
,,,-00.018860000000,   4.00000,
,,,-00.018840000000,   4.00000,
,,,-00.018820000000,   4.00000,
,,,-00.018800000000,   4.00000,
,,,-00.018780000000,   4.00000,
,,,-00.018760000000,   4.00000,
,,,-00.018740000000,   4.00000,
,,,-00.018720000000,   4.00000,
,,,-00.018700000000,   4.00000,
,,,-00.018680000000,   4.00000,
,,,-00.018660000000,   8.00000,
,,,-00.018640000000,   4.00000,
,,,-00.018620000000,   4.00000,
,,,-00.018600000000,   4.00000,
,,,-00.018580000000,   4.00000,
,,,-00.018560000000,   4.00000,
,,,-00.018540000000,   4.00000,
,,,-00.018520000000,   4.00000,
,,,-00.018500000000,   4.00000,
,,,-00.018480000000,   4.00000,
,,,-00.018460000000,   4.00000,
,,,-00.018440000000,   4.00000,
,,,-00.018420000000,   4.00000,
,,,-00.018400000000,   4.00000,
,,,-00.018380000000,   8.00000,
,,,-00.018360000000,   4.00000,
,,,-00.018340000000,   4.00000,
,,,-00.018320000000,   4.00000,
,,,-00.018300000000,   0.00000,
,,,-00.018280000000,   8.00000,
,,,-00.018260000000,   4.00000,
,,,-00.018240000000,   4.00000,
,,,-00.018220000000,   4.00000,
,,,-00.018200000000,   4.00000,
,,,-00.018180000000,   4.00000,
,,,-00.018160000000,   4.00000,
,,,-00.018140000000,   4.00000,
,,,-00.018120000000,   4.00000,
,,,-00.018100000000,   4.00000,
,,,-00.018080000000,   4.00000,
,,,-00.018060000000,   4.00000,
,,,-00.018040000000,   0.00000,
,,,-00.018020000000,   0.00000,
,,,-00.018000000000,   0.00000,
,,,-00.017980000000,   0.00000,
,,,-00.017960000000,   0.00000,
,,,-00.017940000000,   0.00000,
,,,-00.017920000000,   0.00000,
,,,-00.017900000000,   0.00000,
,,,-00.017880000000,   0.00000,
,,,-00.017860000000,   0.00000,
,,,-00.017840000000,   0.00000,
,,,-00.017820000000,   0.00000,
,,,-00.017800000000,   0.00000,
,,,-00.017780000000,   0.00000,
,,,-00.017760000000,   0.00000,
,,,-00.017740000000,   0.00000,
,,,-00.017720000000,   0.00000,
,,,-00.017700000000,   0.00000,
,,,-00.017680000000,   0.00000,
,,,-00.017660000000,   0.00000,
,,,-00.017640000000,   0.00000,
,,,-00.017620000000,   0.00000,
,,,-00.017600000000,   0.00000,
,,,-00.017580000000,   0.00000,
,,,-00.017560000000,   0.00000,
,,,-00.017540000000,   0.00000,
,,,-00.017520000000,   0.00000,
,,,-00.017500000000,   0.00000,
,,,-00.017480000000,   0.00000,
,,,-00.017460000000,   0.00000,
,,,-00.017440000000,   0.00000,
,,,-00.017420000000,   0.00000,
,,,-00.017400000000,   0.00000,
,,,-00.017380000000,   0.00000,
,,,-00.017360000000,   0.00000,
,,,-00.017340000000,   0.00000,
,,,-00.017320000000,   0.00000,
,,,-00.017300000000,   0.00000,
,,,-00.017280000000,   0.00000,
,,,-00.017260000000,   0.00000,
,,,-00.017240000000,   0.00000,
,,,-00.017220000000,   0.00000,
,,,-00.017200000000,   0.00000,
,,,-00.017180000000,   0.00000,
,,,-00.017160000000,  -4.00000,
,,,-00.017140000000,  -4.00000,
,,,-00.017120000000,  -4.00000,
,,,-00.017100000000,  -4.00000,
,,,-00.017080000000,  -4.00000,
,,,-00.017060000000,  -4.00000,
,,,-00.017040000000,  -4.00000,
,,,-00.017020000000,  -4.00000,
,,,-00.017000000000,  -4.00000,
,,,-00.016980000000,  -4.00000,
,,,-00.016960000000,  -4.00000,
,,,-00.016940000000,  -4.00000,
,,,-00.016920000000,  -8.00000,
,,,-00.016900000000,  -4.00000,
,,,-00.016880000000,  -4.00000,
,,,-00.016860000000,  -4.00000,
,,,-00.016840000000,  -4.00000,
,,,-00.016820000000,  -4.00000,
,,,-00.016800000000,  -4.00000,
,,,-00.016780000000,  -4.00000,
,,,-00.016760000000,  -4.00000,
,,,-00.016740000000,  -4.00000,
,,,-00.016720000000,  -4.00000,
,,,-00.016700000000,  -4.00000,
,,,-00.016680000000,  -4.00000,
,,,-00.016660000000,  -4.00000,
,,,-00.016640000000,  -4.00000,
,,,-00.016620000000,   0.00000,
,,,-00.016600000000,  -4.00000,
,,,-00.016580000000,  -4.00000,
,,,-00.016560000000,  -4.00000,
,,,-00.016540000000,  -4.00000,
,,,-00.016520000000,  -4.00000,
,,,-00.016500000000,  -4.00000,
,,,-00.016480000000,  -4.00000,
,,,-00.016460000000,  -4.00000,
,,,-00.016440000000,   0.00000,
,,,-00.016420000000,  -4.00000,
,,,-00.016400000000,  -4.00000,
,,,-00.016380000000,  -4.00000,
,,,-00.016360000000,  -4.00000,
,,,-00.016340000000,  -4.00000,
,,,-00.016320000000,  -4.00000,
,,,-00.016300000000,  -4.00000,
,,,-00.016280000000,  -4.00000,
,,,-00.016260000000,  -4.00000,
,,,-00.016240000000,  -4.00000,
,,,-00.016220000000,  -8.00000,
,,,-00.016200000000,  -8.00000,
,,,-00.016180000000,  -8.00000,
,,,-00.016160000000,  -8.00000,
,,,-00.016140000000,  -8.00000,
,,,-00.016120000000,  -8.00000,
,,,-00.016100000000,  -8.00000,
,,,-00.016080000000,  -8.00000,
,,,-00.016060000000,  -8.00000,
,,,-00.016040000000,  -8.00000,
,,,-00.016020000000,  -8.00000,
,,,-00.016000000000,  -8.00000,
,,,-00.015980000000,  -8.00000,
,,,-00.015960000000,  -8.00000,
,,,-00.015940000000,  -8.00000,
,,,-00.015920000000,  -8.00000,
,,,-00.015900000000,  -8.00000,
,,,-00.015880000000,  -8.00000,
,,,-00.015860000000,  -8.00000,
,,,-00.015840000000,  -8.00000,
,,,-00.015820000000,  -8.00000,
,,,-00.015800000000, -16.00000,
,,,-00.015780000000,  -8.00000,
,,,-00.015760000000,  -8.00000,
,,,-00.015740000000,  -8.00000,
,,,-00.015720000000,  -8.00000,
,,,-00.015700000000,  -8.00000,
,,,-00.015680000000,   0.00000,
,,,-00.015660000000,  -8.00000,
,,,-00.015640000000,  -8.00000,
,,,-00.015620000000,  -8.00000,
,,,-00.015600000000,  -8.00000,
,,,-00.015580000000,  -8.00000,
,,,-00.015560000000,  -8.00000,
,,,-00.015540000000,   0.00000,
,,,-00.015520000000,   0.00000,
,,,-00.015500000000,   0.00000,
,,,-00.015480000000,   8.00000,
,,,-00.015460000000,  16.00000,
,,,-00.015440000000,  28.00000,
,,,-00.015420000000,  36.00000,
,,,-00.015400000000,  44.00000,
,,,-00.015380000000,  56.00000,
,,,-00.015360000000,  64.00000,
,,,-00.015340000000,  76.00000,
,,,-00.015320000000,  92.00000,
,,,-00.015300000000, 104.00000,
,,,-00.015280000000, 120.00000,
,,,-00.015260000000, 132.00000,
,,,-00.015240000000, 152.00000,
,,,-00.015220000000, 160.00000,
,,,-00.015200000000, 172.00000,
,,,-00.015180000000, 192.00000,
,,,-00.015160000000, 200.00000,
,,,-00.015140000000, 220.00000,
,,,-00.015120000000, 236.00000,
,,,-00.015100000000, 252.00000,
,,,-00.015080000000, 264.00000,
,,,-00.015060000000, 288.00000,
,,,-00.015040000000, 292.00000,
,,,-00.015020000000, 308.00000,
,,,-00.015000000000, 324.00000,
,,,-00.014980000000, 332.00000,
,,,-00.014960000000, 336.00000,
,,,-00.014940000000, 348.00000,
,,,-00.014920000000, 360.00000,
,,,-00.014900000000, 360.00000,
,,,-00.014880000000, 376.00000,
,,,-00.014860000000, 384.00000,
,,,-00.014840000000, 400.00000,
,,,-00.014820000000, 400.00000,
,,,-00.014800000000, 408.00000,
,,,-00.014780000000, 408.00000,
,,,-00.014760000000, 420.00000,
,,,-00.014740000000, 420.00000,
,,,-00.014720000000, 436.00000,
,,,-00.014700000000, 436.00000,
,,,-00.014680000000, 436.00000,
,,,-00.014660000000, 440.00000,
,,,-00.014640000000, 452.00000,
,,,-00.014620000000, 464.00000,
,,,-00.014600000000, 464.00000,
,,,-00.014580000000, 472.00000,
,,,-00.014560000000, 472.00000,
,,,-00.014540000000, 480.00000,
,,,-00.014520000000, 472.00000,
,,,-00.014500000000, 476.00000,
,,,-00.014480000000, 484.00000,
,,,-00.014460000000, 476.00000,
,,,-00.014440000000, 484.00000,
,,,-00.014420000000, 484.00000,
,,,-00.014400000000, 484.00000,
,,,-00.014380000000, 484.00000,
,,,-00.014360000000, 484.00000,
,,,-00.014340000000, 472.00000,
,,,-00.014320000000, 460.00000,
,,,-00.014300000000, 468.00000,
,,,-00.014280000000, 460.00000,
,,,-00.014260000000, 444.00000,
,,,-00.014240000000, 428.00000,
,,,-00.014220000000, 428.00000,
,,,-00.014200000000, 420.00000,
,,,-00.014180000000, 396.00000,
,,,-00.014160000000, 384.00000,
,,,-00.014140000000, 360.00000,
,,,-00.014120000000, 340.00000,
,,,-00.014100000000, 328.00000,
,,,-00.014080000000, 292.00000,
,,,-00.014060000000, 280.00000,
,,,-00.014040000000, 248.00000,
,,,-00.014020000000, 220.00000,
,,,-00.014000000000, 184.00000,
,,,-00.013980000000, 164.00000,
,,,-00.013960000000, 124.00000,
,,,-00.013940000000,  88.00000,
,,,-00.013920000000,  64.00000,
,,,-00.013900000000,  12.00000,
,,,-00.013880000000, -12.00000,
,,,-00.013860000000, -20.00000,
,,,-00.013840000000, -12.00000,
,,,-00.013820000000, -12.00000,
,,,-00.013800000000, -12.00000,
,,,-00.013780000000, -12.00000,
,,,-00.013760000000,   0.00000,
,,,-00.013740000000, -12.00000,
,,,-00.013720000000, -12.00000,
,,,-00.013700000000, -12.00000,
,,,-00.013680000000, -12.00000,
,,,-00.013660000000, -12.00000,
,,,-00.013640000000, -12.00000,
,,,-00.013620000000, -12.00000,
,,,-00.013600000000,   0.00000,
,,,-00.013580000000, -12.00000,
,,,-00.013560000000, -12.00000,
,,,-00.013540000000, -12.00000,
,,,-00.013520000000, -12.00000,
,,,-00.013500000000, -12.00000,
,,,-00.013480000000,   0.00000,
,,,-00.013460000000, -12.00000,
,,,-00.013440000000,   0.00000,
,,,-00.013420000000, -12.00000,
,,,-00.013400000000,   0.00000,
,,,-00.013380000000, -12.00000,
,,,-00.013360000000, -12.00000,
,,,-00.013340000000, -12.00000,
,,,-00.013320000000, -12.00000,
,,,-00.013300000000, -12.00000,
,,,-00.013280000000, -12.00000,
,,,-00.013260000000,   0.00000,
,,,-00.013240000000, -12.00000,
,,,-00.013220000000,   0.00000,
,,,-00.013200000000, -12.00000,
,,,-00.013180000000, -12.00000,
,,,-00.013160000000,   0.00000,
,,,-00.013140000000, -12.00000,
,,,-00.013120000000, -12.00000,
,,,-00.013100000000, -12.00000,
,,,-00.013080000000, -12.00000,
,,,-00.013060000000, -12.00000,
,,,-00.013040000000, -12.00000,
,,,-00.013020000000, -12.00000,
,,,-00.013000000000, -12.00000,
,,,-00.012980000000, -12.00000,
,,,-00.012960000000, -12.00000,
,,,-00.012940000000, -12.00000,
,,,-00.012920000000, -12.00000,
,,,-00.012900000000, -12.00000,
,,,-00.012880000000,   0.00000,
,,,-00.012860000000, -12.00000,
,,,-00.012840000000, -12.00000,
,,,-00.012820000000,   0.00000,
,,,-00.012800000000,   0.00000,
,,,-00.012780000000,  12.00000,
,,,-00.012760000000,  12.00000,
,,,-00.012740000000,  24.00000,
